^C:\USERS\OLYALOLYA\SOURCE\REPOS\KOZHEVNIKOV\KOZHEVNIKOV\DEBUG\.NETFRAMEWORK,VERSION=V4.7.2.ASSEMBLYATTRIBUTES.CPP
/c /AI"C:\PROGRAM FILES (X86)\REFERENCE ASSEMBLIES\MICROSOFT\FRAMEWORK\.NETFRAMEWORK\V4.7.2\\" /AI"C:\PROGRAM FILES (X86)\WINDOWS KITS\10\REFERENCES" /AI"C:\PROGRAM FILES (X86)\REFERENCE ASSEMBLIES\MICROSOFT\FRAMEWORK\.NETFRAMEWORK\V4.7.2\FACADES\\" /Zi /clr /nologo /W3 /WX- /diagnostics:column /Od /Oy- /D WIN32 /D _DEBUG /D _UNICODE /D UNICODE /EHa /MDd /GS /fp:precise /Zc:wchar_t /Zc:forScope /Zc:inline /Fo"DEBUG\\" /Fd"DEBUG\VC142.PDB" /TP /FU"C:\PROGRAM FILES (X86)\REFERENCE ASSEMBLIES\MICROSOFT\FRAMEWORK\.NETFRAMEWORK\V4.7.2\MSCORLIB.DLL" /FU"C:\PROGRAM FILES (X86)\REFERENCE ASSEMBLIES\MICROSOFT\FRAMEWORK\.NETFRAMEWORK\V4.7.2\SYSTEM.DATA.DLL" /FU"C:\PROGRAM FILES (X86)\REFERENCE ASSEMBLIES\MICROSOFT\FRAMEWORK\.NETFRAMEWORK\V4.7.2\SYSTEM.DLL" /FU"C:\PROGRAM FILES (X86)\REFERENCE ASSEMBLIES\MICROSOFT\FRAMEWORK\.NETFRAMEWORK\V4.7.2\SYSTEM.DRAWING.DLL" /FU"C:\PROGRAM FILES (X86)\REFERENCE ASSEMBLIES\MICROSOFT\FRAMEWORK\.NETFRAMEWORK\V4.7.2\SYSTEM.WINDOWS.FORMS.DLL" /FU"C:\PROGRAM FILES (X86)\REFERENCE ASSEMBLIES\MICROSOFT\FRAMEWORK\.NETFRAMEWORK\V4.7.2\SYSTEM.XML.DLL" /analyze- /FC /clr:nostdlib  C:\USERS\OLYALOLYA\SOURCE\REPOS\KOZHEVNIKOV\KOZHEVNIKOV\DEBUG\.NETFRAMEWORK,VERSION=V4.7.2.ASSEMBLYATTRIBUTES.CPP
^C:\USERS\OLYALOLYA\SOURCE\REPOS\KOZHEVNIKOV\KOZHEVNIKOV\FORMMAIN.CPP
/c /AI"C:\PROGRAM FILES (X86)\REFERENCE ASSEMBLIES\MICROSOFT\FRAMEWORK\.NETFRAMEWORK\V4.7.2\\" /AI"C:\PROGRAM FILES (X86)\WINDOWS KITS\10\REFERENCES" /AI"C:\PROGRAM FILES (X86)\REFERENCE ASSEMBLIES\MICROSOFT\FRAMEWORK\.NETFRAMEWORK\V4.7.2\FACADES\\" /Zi /clr /nologo /W3 /WX- /diagnostics:column /Od /Oy- /D WIN32 /D _DEBUG /D _UNICODE /D UNICODE /EHa /MDd /GS /fp:precise /Zc:wchar_t /Zc:forScope /Zc:inline /Fo"DEBUG\\" /Fd"DEBUG\VC142.PDB" /TP /FU"C:\PROGRAM FILES (X86)\REFERENCE ASSEMBLIES\MICROSOFT\FRAMEWORK\.NETFRAMEWORK\V4.7.2\MSCORLIB.DLL" /FU"C:\PROGRAM FILES (X86)\REFERENCE ASSEMBLIES\MICROSOFT\FRAMEWORK\.NETFRAMEWORK\V4.7.2\SYSTEM.DATA.DLL" /FU"C:\PROGRAM FILES (X86)\REFERENCE ASSEMBLIES\MICROSOFT\FRAMEWORK\.NETFRAMEWORK\V4.7.2\SYSTEM.DLL" /FU"C:\PROGRAM FILES (X86)\REFERENCE ASSEMBLIES\MICROSOFT\FRAMEWORK\.NETFRAMEWORK\V4.7.2\SYSTEM.DRAWING.DLL" /FU"C:\PROGRAM FILES (X86)\REFERENCE ASSEMBLIES\MICROSOFT\FRAMEWORK\.NETFRAMEWORK\V4.7.2\SYSTEM.WINDOWS.FORMS.DLL" /FU"C:\PROGRAM FILES (X86)\REFERENCE ASSEMBLIES\MICROSOFT\FRAMEWORK\.NETFRAMEWORK\V4.7.2\SYSTEM.XML.DLL" /analyze- /FC /clr:nostdlib  C:\USERS\OLYALOLYA\SOURCE\REPOS\KOZHEVNIKOV\KOZHEVNIKOV\FORMMAIN.CPP
^C:\USERS\NIKPA\APPDATA\LOCAL\TEMP\.NETFRAMEWORK,VERSION=V4.7.2.ASSEMBLYATTRIBUTES.CPP
/c /Zi /clr /nologo /W3 /WX- /diagnostics:column /Od /Oy- /D WIN32 /D _DEBUG /D _UNICODE /D UNICODE /EHa /MDd /GS /fp:precise /Zc:wchar_t /Zc:forScope /Zc:inline /Fp"DEBUG\KOZHEVNIKOV.PCH" /Fa"DEBUG\\" /Fo"DEBUG\\" /Fd"DEBUG\VC142.PDB" /analyze- /FC C:\USERS\NIKPA\APPDATA\LOCAL\TEMP\.NETFRAMEWORK,VERSION=V4.7.2.ASSEMBLYATTRIBUTES.CPP
^C:\USERS\NIKPA\DOWNLOADS\KOZHEVNIKOV\KOZHEVNIKOV\KOZHEVNIKOV\DEBUG\.NETFRAMEWORK,VERSION=V4.7.2.ASSEMBLYATTRIBUTES.CPP
/c /AI"C:\PROGRAM FILES (X86)\REFERENCE ASSEMBLIES\MICROSOFT\FRAMEWORK\.NETFRAMEWORK\V4.7.2\\" /AI"C:\PROGRAM FILES (X86)\WINDOWS KITS\10\REFERENCES" /AI"C:\PROGRAM FILES (X86)\REFERENCE ASSEMBLIES\MICROSOFT\FRAMEWORK\.NETFRAMEWORK\V4.7.2\FACADES\\" /Zi /clr /nologo /W3 /WX- /diagnostics:column /Od /Oy- /D WIN32 /D _DEBUG /D _UNICODE /D UNICODE /EHa /MDd /GS /fp:precise /Zc:wchar_t /Zc:forScope /Zc:inline /Fo"DEBUG\\" /Fd"DEBUG\VC142.PDB" /TP /FU"C:\PROGRAM FILES (X86)\REFERENCE ASSEMBLIES\MICROSOFT\FRAMEWORK\.NETFRAMEWORK\V4.7.2\MSCORLIB.DLL" /FU"C:\PROGRAM FILES (X86)\REFERENCE ASSEMBLIES\MICROSOFT\FRAMEWORK\.NETFRAMEWORK\V4.7.2\SYSTEM.DATA.DLL" /FU"C:\PROGRAM FILES (X86)\REFERENCE ASSEMBLIES\MICROSOFT\FRAMEWORK\.NETFRAMEWORK\V4.7.2\SYSTEM.DLL" /FU"C:\PROGRAM FILES (X86)\REFERENCE ASSEMBLIES\MICROSOFT\FRAMEWORK\.NETFRAMEWORK\V4.7.2\SYSTEM.DRAWING.DLL" /FU"C:\PROGRAM FILES (X86)\REFERENCE ASSEMBLIES\MICROSOFT\FRAMEWORK\.NETFRAMEWORK\V4.7.2\SYSTEM.WINDOWS.FORMS.DLL" /FU"C:\PROGRAM FILES (X86)\REFERENCE ASSEMBLIES\MICROSOFT\FRAMEWORK\.NETFRAMEWORK\V4.7.2\SYSTEM.XML.DLL" /analyze- /FC /clr:nostdlib  C:\USERS\NIKPA\DOWNLOADS\KOZHEVNIKOV\KOZHEVNIKOV\KOZHEVNIKOV\DEBUG\.NETFRAMEWORK,VERSION=V4.7.2.ASSEMBLYATTRIBUTES.CPP
^C:\USERS\NIKPA\DOWNLOADS\KOZHEVNIKOV\KOZHEVNIKOV\KOZHEVNIKOV\FORMMAIN.CPP
/c /AI"C:\PROGRAM FILES (X86)\REFERENCE ASSEMBLIES\MICROSOFT\FRAMEWORK\.NETFRAMEWORK\V4.7.2\\" /AI"C:\PROGRAM FILES (X86)\WINDOWS KITS\10\REFERENCES" /AI"C:\PROGRAM FILES (X86)\REFERENCE ASSEMBLIES\MICROSOFT\FRAMEWORK\.NETFRAMEWORK\V4.7.2\FACADES\\" /Zi /clr /nologo /W3 /WX- /diagnostics:column /Od /Oy- /D WIN32 /D _DEBUG /D _UNICODE /D UNICODE /EHa /MDd /GS /fp:precise /Zc:wchar_t /Zc:forScope /Zc:inline /Fo"DEBUG\\" /Fd"DEBUG\VC142.PDB" /TP /FU"C:\PROGRAM FILES (X86)\REFERENCE ASSEMBLIES\MICROSOFT\FRAMEWORK\.NETFRAMEWORK\V4.7.2\MSCORLIB.DLL" /FU"C:\PROGRAM FILES (X86)\REFERENCE ASSEMBLIES\MICROSOFT\FRAMEWORK\.NETFRAMEWORK\V4.7.2\SYSTEM.DATA.DLL" /FU"C:\PROGRAM FILES (X86)\REFERENCE ASSEMBLIES\MICROSOFT\FRAMEWORK\.NETFRAMEWORK\V4.7.2\SYSTEM.DLL" /FU"C:\PROGRAM FILES (X86)\REFERENCE ASSEMBLIES\MICROSOFT\FRAMEWORK\.NETFRAMEWORK\V4.7.2\SYSTEM.DRAWING.DLL" /FU"C:\PROGRAM FILES (X86)\REFERENCE ASSEMBLIES\MICROSOFT\FRAMEWORK\.NETFRAMEWORK\V4.7.2\SYSTEM.WINDOWS.FORMS.DLL" /FU"C:\PROGRAM FILES (X86)\REFERENCE ASSEMBLIES\MICROSOFT\FRAMEWORK\.NETFRAMEWORK\V4.7.2\SYSTEM.XML.DLL" /analyze- /FC /clr:nostdlib  C:\USERS\NIKPA\DOWNLOADS\KOZHEVNIKOV\KOZHEVNIKOV\KOZHEVNIKOV\FORMMAIN.CPP
^C:\USERS\НИКОЛАЙ\MAIN\REPOSIT\YCEHBA\C\KOZHEVNIKOV\KOZHEVNIKOV\KOZHEVNIKOV\DEBUG\.NETFRAMEWORK,VERSION=V4.7.2.ASSEMBLYATTRIBUTES.CPP
/c /AI"C:\PROGRAM FILES (X86)\REFERENCE ASSEMBLIES\MICROSOFT\FRAMEWORK\.NETFRAMEWORK\V4.7.2\\" /AI"C:\PROGRAM FILES (X86)\WINDOWS KITS\10\REFERENCES" /AI"C:\PROGRAM FILES (X86)\REFERENCE ASSEMBLIES\MICROSOFT\FRAMEWORK\.NETFRAMEWORK\V4.7.2\FACADES\\" /Zi /clr /nologo /W3 /WX- /diagnostics:column /Od /Oy- /D WIN32 /D _DEBUG /D _UNICODE /D UNICODE /EHa /MDd /GS /fp:precise /Zc:wchar_t /Zc:forScope /Zc:inline /Fo"DEBUG\\" /Fd"DEBUG\VC142.PDB" /external:W3 /TP /FU"C:\PROGRAM FILES (X86)\REFERENCE ASSEMBLIES\MICROSOFT\FRAMEWORK\.NETFRAMEWORK\V4.7.2\MSCORLIB.DLL" /FU"C:\PROGRAM FILES (X86)\REFERENCE ASSEMBLIES\MICROSOFT\FRAMEWORK\.NETFRAMEWORK\V4.7.2\SYSTEM.DATA.DLL" /FU"C:\PROGRAM FILES (X86)\REFERENCE ASSEMBLIES\MICROSOFT\FRAMEWORK\.NETFRAMEWORK\V4.7.2\SYSTEM.DLL" /FU"C:\PROGRAM FILES (X86)\REFERENCE ASSEMBLIES\MICROSOFT\FRAMEWORK\.NETFRAMEWORK\V4.7.2\SYSTEM.DRAWING.DLL" /FU"C:\PROGRAM FILES (X86)\REFERENCE ASSEMBLIES\MICROSOFT\FRAMEWORK\.NETFRAMEWORK\V4.7.2\SYSTEM.WINDOWS.FORMS.DLL" /FU"C:\PROGRAM FILES (X86)\REFERENCE ASSEMBLIES\MICROSOFT\FRAMEWORK\.NETFRAMEWORK\V4.7.2\SYSTEM.XML.DLL" /analyze- /FC /clr:nostdlib  C:\USERS\НИКОЛАЙ\MAIN\REPOSIT\YCEHBA\C\KOZHEVNIKOV\KOZHEVNIKOV\KOZHEVNIKOV\DEBUG\.NETFRAMEWORK,VERSION=V4.7.2.ASSEMBLYATTRIBUTES.CPP
^C:\USERS\НИКОЛАЙ\MAIN\REPOSIT\YCEHBA\C\KOZHEVNIKOV\KOZHEVNIKOV\KOZHEVNIKOV\ADDFORM.CPP
/c /AI"C:\PROGRAM FILES (X86)\REFERENCE ASSEMBLIES\MICROSOFT\FRAMEWORK\.NETFRAMEWORK\V4.7.2\\" /AI"C:\PROGRAM FILES (X86)\WINDOWS KITS\10\REFERENCES" /AI"C:\PROGRAM FILES (X86)\REFERENCE ASSEMBLIES\MICROSOFT\FRAMEWORK\.NETFRAMEWORK\V4.7.2\FACADES\\" /Zi /clr /nologo /W3 /WX- /diagnostics:column /Od /Oy- /D WIN32 /D _DEBUG /D _UNICODE /D UNICODE /EHa /MDd /GS /fp:precise /Zc:wchar_t /Zc:forScope /Zc:inline /Fo"DEBUG\\" /Fd"DEBUG\VC142.PDB" /external:W3 /TP /FU"C:\PROGRAM FILES (X86)\REFERENCE ASSEMBLIES\MICROSOFT\FRAMEWORK\.NETFRAMEWORK\V4.7.2\MSCORLIB.DLL" /FU"C:\PROGRAM FILES (X86)\REFERENCE ASSEMBLIES\MICROSOFT\FRAMEWORK\.NETFRAMEWORK\V4.7.2\SYSTEM.DATA.DLL" /FU"C:\PROGRAM FILES (X86)\REFERENCE ASSEMBLIES\MICROSOFT\FRAMEWORK\.NETFRAMEWORK\V4.7.2\SYSTEM.DLL" /FU"C:\PROGRAM FILES (X86)\REFERENCE ASSEMBLIES\MICROSOFT\FRAMEWORK\.NETFRAMEWORK\V4.7.2\SYSTEM.DRAWING.DLL" /FU"C:\PROGRAM FILES (X86)\REFERENCE ASSEMBLIES\MICROSOFT\FRAMEWORK\.NETFRAMEWORK\V4.7.2\SYSTEM.WINDOWS.FORMS.DLL" /FU"C:\PROGRAM FILES (X86)\REFERENCE ASSEMBLIES\MICROSOFT\FRAMEWORK\.NETFRAMEWORK\V4.7.2\SYSTEM.XML.DLL" /analyze- /FC /clr:nostdlib  C:\USERS\НИКОЛАЙ\MAIN\REPOSIT\YCEHBA\C\KOZHEVNIKOV\KOZHEVNIKOV\KOZHEVNIKOV\ADDFORM.CPP
^C:\USERS\НИКОЛАЙ\MAIN\REPOSIT\YCEHBA\C\KOZHEVNIKOV\KOZHEVNIKOV\KOZHEVNIKOV\DELETEFORM.CPP
/c /AI"C:\PROGRAM FILES (X86)\REFERENCE ASSEMBLIES\MICROSOFT\FRAMEWORK\.NETFRAMEWORK\V4.7.2\\" /AI"C:\PROGRAM FILES (X86)\WINDOWS KITS\10\REFERENCES" /AI"C:\PROGRAM FILES (X86)\REFERENCE ASSEMBLIES\MICROSOFT\FRAMEWORK\.NETFRAMEWORK\V4.7.2\FACADES\\" /Zi /clr /nologo /W3 /WX- /diagnostics:column /Od /Oy- /D WIN32 /D _DEBUG /D _UNICODE /D UNICODE /EHa /MDd /GS /fp:precise /Zc:wchar_t /Zc:forScope /Zc:inline /Fo"DEBUG\\" /Fd"DEBUG\VC142.PDB" /external:W3 /TP /FU"C:\PROGRAM FILES (X86)\REFERENCE ASSEMBLIES\MICROSOFT\FRAMEWORK\.NETFRAMEWORK\V4.7.2\MSCORLIB.DLL" /FU"C:\PROGRAM FILES (X86)\REFERENCE ASSEMBLIES\MICROSOFT\FRAMEWORK\.NETFRAMEWORK\V4.7.2\SYSTEM.DATA.DLL" /FU"C:\PROGRAM FILES (X86)\REFERENCE ASSEMBLIES\MICROSOFT\FRAMEWORK\.NETFRAMEWORK\V4.7.2\SYSTEM.DLL" /FU"C:\PROGRAM FILES (X86)\REFERENCE ASSEMBLIES\MICROSOFT\FRAMEWORK\.NETFRAMEWORK\V4.7.2\SYSTEM.DRAWING.DLL" /FU"C:\PROGRAM FILES (X86)\REFERENCE ASSEMBLIES\MICROSOFT\FRAMEWORK\.NETFRAMEWORK\V4.7.2\SYSTEM.WINDOWS.FORMS.DLL" /FU"C:\PROGRAM FILES (X86)\REFERENCE ASSEMBLIES\MICROSOFT\FRAMEWORK\.NETFRAMEWORK\V4.7.2\SYSTEM.XML.DLL" /analyze- /FC /clr:nostdlib  C:\USERS\НИКОЛАЙ\MAIN\REPOSIT\YCEHBA\C\KOZHEVNIKOV\KOZHEVNIKOV\KOZHEVNIKOV\DELETEFORM.CPP
^C:\USERS\НИКОЛАЙ\MAIN\REPOSIT\YCEHBA\C\KOZHEVNIKOV\KOZHEVNIKOV\KOZHEVNIKOV\SEARCHFORM.CPP
/c /AI"C:\PROGRAM FILES (X86)\REFERENCE ASSEMBLIES\MICROSOFT\FRAMEWORK\.NETFRAMEWORK\V4.7.2\\" /AI"C:\PROGRAM FILES (X86)\WINDOWS KITS\10\REFERENCES" /AI"C:\PROGRAM FILES (X86)\REFERENCE ASSEMBLIES\MICROSOFT\FRAMEWORK\.NETFRAMEWORK\V4.7.2\FACADES\\" /Zi /clr /nologo /W3 /WX- /diagnostics:column /Od /Oy- /D WIN32 /D _DEBUG /D _UNICODE /D UNICODE /EHa /MDd /GS /fp:precise /Zc:wchar_t /Zc:forScope /Zc:inline /Fo"DEBUG\\" /Fd"DEBUG\VC142.PDB" /external:W3 /TP /FU"C:\PROGRAM FILES (X86)\REFERENCE ASSEMBLIES\MICROSOFT\FRAMEWORK\.NETFRAMEWORK\V4.7.2\MSCORLIB.DLL" /FU"C:\PROGRAM FILES (X86)\REFERENCE ASSEMBLIES\MICROSOFT\FRAMEWORK\.NETFRAMEWORK\V4.7.2\SYSTEM.DATA.DLL" /FU"C:\PROGRAM FILES (X86)\REFERENCE ASSEMBLIES\MICROSOFT\FRAMEWORK\.NETFRAMEWORK\V4.7.2\SYSTEM.DLL" /FU"C:\PROGRAM FILES (X86)\REFERENCE ASSEMBLIES\MICROSOFT\FRAMEWORK\.NETFRAMEWORK\V4.7.2\SYSTEM.DRAWING.DLL" /FU"C:\PROGRAM FILES (X86)\REFERENCE ASSEMBLIES\MICROSOFT\FRAMEWORK\.NETFRAMEWORK\V4.7.2\SYSTEM.WINDOWS.FORMS.DLL" /FU"C:\PROGRAM FILES (X86)\REFERENCE ASSEMBLIES\MICROSOFT\FRAMEWORK\.NETFRAMEWORK\V4.7.2\SYSTEM.XML.DLL" /analyze- /FC /clr:nostdlib  C:\USERS\НИКОЛАЙ\MAIN\REPOSIT\YCEHBA\C\KOZHEVNIKOV\KOZHEVNIKOV\KOZHEVNIKOV\SEARCHFORM.CPP
^C:\USERS\НИКОЛАЙ\MAIN\REPOSIT\YCEHBA\C\KOZHEVNIKOV\KOZHEVNIKOV\KOZHEVNIKOV\SPISFORM.CPP
/c /AI"C:\PROGRAM FILES (X86)\REFERENCE ASSEMBLIES\MICROSOFT\FRAMEWORK\.NETFRAMEWORK\V4.7.2\\" /AI"C:\PROGRAM FILES (X86)\WINDOWS KITS\10\REFERENCES" /AI"C:\PROGRAM FILES (X86)\REFERENCE ASSEMBLIES\MICROSOFT\FRAMEWORK\.NETFRAMEWORK\V4.7.2\FACADES\\" /Zi /clr /nologo /W3 /WX- /diagnostics:column /Od /Oy- /D WIN32 /D _DEBUG /D _UNICODE /D UNICODE /EHa /MDd /GS /fp:precise /Zc:wchar_t /Zc:forScope /Zc:inline /Fo"DEBUG\\" /Fd"DEBUG\VC142.PDB" /external:W3 /TP /FU"C:\PROGRAM FILES (X86)\REFERENCE ASSEMBLIES\MICROSOFT\FRAMEWORK\.NETFRAMEWORK\V4.7.2\MSCORLIB.DLL" /FU"C:\PROGRAM FILES (X86)\REFERENCE ASSEMBLIES\MICROSOFT\FRAMEWORK\.NETFRAMEWORK\V4.7.2\SYSTEM.DATA.DLL" /FU"C:\PROGRAM FILES (X86)\REFERENCE ASSEMBLIES\MICROSOFT\FRAMEWORK\.NETFRAMEWORK\V4.7.2\SYSTEM.DLL" /FU"C:\PROGRAM FILES (X86)\REFERENCE ASSEMBLIES\MICROSOFT\FRAMEWORK\.NETFRAMEWORK\V4.7.2\SYSTEM.DRAWING.DLL" /FU"C:\PROGRAM FILES (X86)\REFERENCE ASSEMBLIES\MICROSOFT\FRAMEWORK\.NETFRAMEWORK\V4.7.2\SYSTEM.WINDOWS.FORMS.DLL" /FU"C:\PROGRAM FILES (X86)\REFERENCE ASSEMBLIES\MICROSOFT\FRAMEWORK\.NETFRAMEWORK\V4.7.2\SYSTEM.XML.DLL" /analyze- /FC /clr:nostdlib  C:\USERS\НИКОЛАЙ\MAIN\REPOSIT\YCEHBA\C\KOZHEVNIKOV\KOZHEVNIKOV\KOZHEVNIKOV\SPISFORM.CPP
^C:\USERS\НИКОЛАЙ\MAIN\REPOSIT\YCEHBA\C\KOZHEVNIKOV\KOZHEVNIKOV\KOZHEVNIKOV\FORMMAIN.CPP
/c /AI"C:\PROGRAM FILES (X86)\REFERENCE ASSEMBLIES\MICROSOFT\FRAMEWORK\.NETFRAMEWORK\V4.7.2\\" /AI"C:\PROGRAM FILES (X86)\WINDOWS KITS\10\REFERENCES" /AI"C:\PROGRAM FILES (X86)\REFERENCE ASSEMBLIES\MICROSOFT\FRAMEWORK\.NETFRAMEWORK\V4.7.2\FACADES\\" /Zi /clr /nologo /W3 /WX- /diagnostics:column /Od /Oy- /D WIN32 /D _DEBUG /D _UNICODE /D UNICODE /EHa /MDd /GS /fp:precise /Zc:wchar_t /Zc:forScope /Zc:inline /Fo"DEBUG\\" /Fd"DEBUG\VC142.PDB" /external:W3 /TP /FU"C:\PROGRAM FILES (X86)\REFERENCE ASSEMBLIES\MICROSOFT\FRAMEWORK\.NETFRAMEWORK\V4.7.2\MSCORLIB.DLL" /FU"C:\PROGRAM FILES (X86)\REFERENCE ASSEMBLIES\MICROSOFT\FRAMEWORK\.NETFRAMEWORK\V4.7.2\SYSTEM.DATA.DLL" /FU"C:\PROGRAM FILES (X86)\REFERENCE ASSEMBLIES\MICROSOFT\FRAMEWORK\.NETFRAMEWORK\V4.7.2\SYSTEM.DLL" /FU"C:\PROGRAM FILES (X86)\REFERENCE ASSEMBLIES\MICROSOFT\FRAMEWORK\.NETFRAMEWORK\V4.7.2\SYSTEM.DRAWING.DLL" /FU"C:\PROGRAM FILES (X86)\REFERENCE ASSEMBLIES\MICROSOFT\FRAMEWORK\.NETFRAMEWORK\V4.7.2\SYSTEM.WINDOWS.FORMS.DLL" /FU"C:\PROGRAM FILES (X86)\REFERENCE ASSEMBLIES\MICROSOFT\FRAMEWORK\.NETFRAMEWORK\V4.7.2\SYSTEM.XML.DLL" /analyze- /FC /clr:nostdlib  C:\USERS\НИКОЛАЙ\MAIN\REPOSIT\YCEHBA\C\KOZHEVNIKOV\KOZHEVNIKOV\KOZHEVNIKOV\FORMMAIN.CPP
