^C:\USERS\НИКОЛАЙ\MAIN\REPOSIT\YCEHBA\C\KOZHEVNIKOV\KOZHEVNIKOV\KOZHEVNIKOV\DEBUG\.NETFRAMEWORK,VERSION=V4.7.2.ASSEMBLYATTRIBUTES.OBJ|C:\USERS\НИКОЛАЙ\MAIN\REPOSIT\YCEHBA\C\KOZHEVNIKOV\KOZHEVNIKOV\KOZHEVNIKOV\DEBUG\ADDFORM.OBJ|C:\USERS\НИКОЛАЙ\MAIN\REPOSIT\YCEHBA\C\KOZHEVNIKOV\KOZHEVNIKOV\KOZHEVNIKOV\DEBUG\DELETEFORM.OBJ|C:\USERS\НИКОЛАЙ\MAIN\REPOSIT\YCEHBA\C\KOZHEVNIKOV\KOZHEVNIKOV\KOZHEVNIKOV\DEBUG\FORMMAIN.OBJ|C:\USERS\НИКОЛАЙ\MAIN\REPOSIT\YCEHBA\C\KOZHEVNIKOV\KOZHEVNIKOV\KOZHEVNIKOV\DEBUG\SEARCHFORM.OBJ|C:\USERS\НИКОЛАЙ\MAIN\REPOSIT\YCEHBA\C\KOZHEVNIKOV\KOZHEVNIKOV\KOZHEVNIKOV\DEBUG\SPISFORM.OBJ
C:\USERS\Николай\MAIN\REPOSIT\YCEHBA\C\KOZHEVNIKOV\KOZHEVNIKOV\DEBUG\KOZHEVNIKOV.EXE
C:\USERS\НИКОЛАЙ\MAIN\REPOSIT\YCEHBA\C\KOZHEVNIKOV\KOZHEVNIKOV\DEBUG\KOZHEVNIKOV.PDB
